{
  "development": {
    "username": "root",
    "password": null,
    "database": "database.db",
    "host": "database.db",
    "dialect": "sqlite",
    "operatorsAliases": false
  },
  "test": {
    "username": "root",
    "password": null,
    "database": "database.db",
    "host": "database.db",
    "dialect": "sqlite",
    "operatorsAliases": false
  },
  "production": {
    "username": "root",
    "password": null,
    "database": "database.db",
    "host": "database.db",
    "dialect": "sqlite",
    "operatorsAliases": false
  }
}
